// Jest Snapshot v1, https://goo.gl/fbAQLP

exports[`<ExchangeWidget /> should render the component and match snapshot 1`] = `
<div>
  <div
    class="sc-ifAKCX iycKpo"
  >
    <div
      class="sc-bZQynM ccplOv"
      data-testid="inputRow"
    >
      <div>
        <select
          class="sc-gzVnrw bsHdpQ"
          data-testid="testSelect"
        >
          <option
            value="EUR"
          >
            EUR
          </option>
          <option
            value="USD"
          >
            USD
          </option>
          <option
            value="GBP"
          >
            GBP
          </option>
        </select>
        <div
          class="sc-dnqmqq gInMht"
          data-testid="testBalance"
        >
          Balance: 
          0
           
          €
        </div>
      </div>
      <input
        class="sc-htoDjs dJEmzx"
        data-testid="testInput"
        placeholder="0"
        type="text"
        value=""
      />
    </div>
    <button
      class="sc-bdVaJa gwmeMT"
      data-testid="testSwitchButton"
    >
      <img
        alt="Switch icon"
        src="ic_switch_icon.svg"
      />
    </button>
    <div
      class="sc-bwzfXH hPSIph"
    >
      <div
        class="sc-htpNat fUiXaY"
        data-testid="testCurrentRate"
      >
        1€
         = 
        1
        $
      </div>
    </div>
    <div
      class="sc-bZQynM ccplOv"
      data-testid="inputRow"
    >
      <div>
        <select
          class="sc-gzVnrw bsHdpQ"
          data-testid="testSelect"
        >
          <option
            value="EUR"
          >
            EUR
          </option>
          <option
            value="USD"
          >
            USD
          </option>
          <option
            value="GBP"
          >
            GBP
          </option>
        </select>
        <div
          class="sc-dnqmqq gInMht"
          data-testid="testBalance"
        >
          Balance: 
          0
           
          $
        </div>
      </div>
      <input
        class="sc-htoDjs dJEmzx"
        data-testid="testInput"
        placeholder="0"
        type="text"
        value=""
      />
    </div>
    <button
      class="sc-bxivhb gGcShC"
      data-testid="testExchangeButton"
      disabled=""
      type="button"
    >
      Exchange
    </button>
  </div>
</div>
`;
